enrique/processor.vcd
$date
	Wed Nov 20 16:04:53 2024
$end
$version
	Icarus Verilog
$end
$timescale
	1ps
$end
$scope module testbench $end
$var wire 32 ! WriteData [31:0] $end
$var wire 1 " MemWrite $end
$var wire 32 # DataAdr [31:0] $end
$var reg 1 $ clk $end
$var reg 1 % reset $end
$scope module processor $end
$var wire 1 $ clk $end
$var wire 1 % reset $end
$var wire 32 & WriteData [31:0] $end
$var wire 1 ' RegWrite $end
$var wire 2 ( RegSrc [1:0] $end
$var wire 32 ) ReadData [31:0] $end
$var wire 1 * PCSrc $end
$var wire 32 + PC [31:0] $end
$var wire 1 , MemtoReg $end
$var wire 1 " MemWrite $end
$var wire 32 - Instruction [31:0] $end
$var wire 2 . ImmSrc [1:0] $end
$var wire 32 / DataAdr [31:0] $end
$var wire 1 0 ALUSrc $end
$var wire 4 1 ALUFlags [3:0] $end
$var wire 3 2 ALUControl [2:0] $end
$scope module control_unit $end
$var wire 20 3 Instr [31:12] $end
$var wire 1 $ clk $end
$var wire 1 % reset $end
$var wire 1 4 RegisterWrite $end
$var wire 1 ' RegWrite $end
$var wire 2 5 RegSrc [1:0] $end
$var wire 1 * PCSrc $end
$var wire 1 , MemtoReg $end
$var wire 1 6 MemoryWrite $end
$var wire 1 " MemWrite $end
$var wire 2 7 ImmSrc [1:0] $end
$var wire 2 8 FlagWrite [1:0] $end
$var wire 1 9 BranchSignal $end
$var wire 1 0 ALUSrc $end
$var wire 4 : ALUFlags [3:0] $end
$var wire 3 ; ALUControl [2:0] $end
$scope module condition_logic $end
$var wire 4 < Cond [3:0] $end
$var wire 2 = FlagWriteEnable [1:0] $end
$var wire 1 " MemWrite $end
$var wire 1 * PCSrc $end
$var wire 1 ' RegWrite $end
$var wire 1 $ clk $end
$var wire 1 % reset $end
$var wire 1 4 RegW $end
$var wire 1 9 PCS $end
$var wire 1 6 MemW $end
$var wire 2 > FlagW [1:0] $end
$var wire 4 ? CurrentFlags [3:0] $end
$var wire 1 @ ConditionMet $end
$var wire 4 A ALUFlags [3:0] $end
$scope module condition_checker $end
$var wire 4 B Cond [3:0] $end
$var wire 4 C Flags [3:0] $end
$var wire 1 D ge $end
$var wire 1 E zero $end
$var wire 1 F overflow $end
$var wire 1 G neg $end
$var wire 1 H carry $end
$var reg 1 @ CondEx $end
$upscope $end
$scope module flag_register_high $end
$var wire 1 $ clk $end
$var wire 2 I d [1:0] $end
$var wire 1 J en $end
$var wire 1 % reset $end
$var parameter 32 K WIDTH $end
$var reg 2 L q [1:0] $end
$upscope $end
$scope module flag_register_low $end
$var wire 1 $ clk $end
$var wire 2 M d [1:0] $end
$var wire 1 N en $end
$var wire 1 % reset $end
$var parameter 32 O WIDTH $end
$var reg 2 P q [1:0] $end
$upscope $end
$upscope $end
$scope module decoder $end
$var wire 6 Q Funct [5:0] $end
$var wire 2 R Op [1:0] $end
$var wire 1 9 PCS $end
$var wire 4 S Rd [3:0] $end
$var wire 1 4 RegW $end
$var wire 2 T RegSrc [1:0] $end
$var wire 1 , MemtoReg $end
$var wire 1 6 MemW $end
$var wire 2 U ImmSrc [1:0] $end
$var wire 1 V BranchSignal $end
$var wire 1 0 ALUSrc $end
$var wire 1 W ALUOperation $end
$var reg 3 X ALUControl [2:0] $end
$var reg 2 Y FlagW [1:0] $end
$var reg 10 Z controls [9:0] $end
$upscope $end
$upscope $end
$scope module data_path $end
$var wire 3 [ ALUControl [2:0] $end
$var wire 32 \ ALUResult_writeback [31:0] $end
$var wire 1 0 ALUSrc $end
$var wire 2 ] ImmSrc [1:0] $end
$var wire 1 ^ MemWrite $end
$var wire 1 , MemtoReg $end
$var wire 1 * PCSrc $end
$var wire 32 _ ReadData_writeback [31:0] $end
$var wire 2 ` RegSrc [1:0] $end
$var wire 1 ' RegWrite $end
$var wire 4 a WA3W [3:0] $end
$var wire 1 $ clk $end
$var wire 1 % reset $end
$var wire 32 b WriteData_memory [31:0] $end
$var wire 32 c WriteData_execute [31:0] $end
$var wire 32 d WriteData [31:0] $end
$var wire 4 e WA3E_memory [3:0] $end
$var wire 4 f WA3D_execute [3:0] $end
$var wire 32 g SrcB [31:0] $end
$var wire 32 h SrcA_execute [31:0] $end
$var wire 32 i SrcA [31:0] $end
$var wire 32 j ResultW [31:0] $end
$var wire 32 k ReadData [31:0] $end
$var wire 4 l RA2 [3:0] $end
$var wire 4 m RA1 [3:0] $end
$var wire 32 n PCPlus8 [31:0] $end
$var wire 32 o PCPlus4_decode [31:0] $end
$var wire 32 p PCPlus4 [31:0] $end
$var wire 32 q PCNext [31:0] $end
$var wire 32 r PC [31:0] $end
$var wire 68 s MEMORY_OUT [67:0] $end
$var wire 68 t MEMORY_IN [67:0] $end
$var wire 32 u Instr_decode [31:0] $end
$var wire 32 v Instr [31:0] $end
$var wire 64 w FETCH_OUT [63:0] $end
$var wire 64 x FETCH_IN [63:0] $end
$var wire 32 y ExtendedImm_execute [31:0] $end
$var wire 32 z ExtendedImm [31:0] $end
$var wire 68 { EXECUTE_OUT [67:0] $end
$var wire 68 | EXECUTE_IN [67:0] $end
$var wire 100 } DECODE_OUT [99:0] $end
$var wire 100 ~ DECODE_IN [99:0] $end
$var wire 32 !" ALUResult_memory [31:0] $end
$var wire 32 "" ALUResult [31:0] $end
$var wire 4 #" ALUFlags [3:0] $end
$scope module arithmetic_logic_unit $end
$var wire 3 $" ALUControl [2:0] $end
$var wire 32 %" a [31:0] $end
$var wire 32 &" a_signed [31:0] $end
$var wire 32 '" b_signed [31:0] $end
$var wire 1 (" carry_flag $end
$var wire 1 )" overflow_flag $end
$var wire 1 *" zero_flag $end
$var wire 1 +" udiv $end
$var wire 33 ," sum [32:0] $end
$var wire 32 -" sdiv [31:0] $end
$var wire 1 ." neg_flag $end
$var wire 32 /" inverted_b [31:0] $end
$var wire 32 0" b [31:0] $end
$var wire 4 1" ALUFlags [3:0] $end
$var reg 32 2" Result [31:0] $end
$upscope $end
$scope module data_memory $end
$var wire 32 3" address [31:0] $end
$var wire 1 $ clk $end
$var wire 32 4" read_data [31:0] $end
$var wire 1 ^ we $end
$var wire 32 5" write_data [31:0] $end
$upscope $end
$scope module decode_register $end
$var wire 1 $ clk $end
$var wire 100 6" d [99:0] $end
$var wire 1 % reset $end
$var parameter 32 7" WIDTH $end
$var reg 100 8" q [99:0] $end
$upscope $end
$scope module execute_register $end
$var wire 1 $ clk $end
$var wire 68 9" d [67:0] $end
$var wire 1 % reset $end
$var parameter 32 :" WIDTH $end
$var reg 68 ;" q [67:0] $end
$upscope $end
$scope module fetch_register $end
$var wire 1 $ clk $end
$var wire 64 <" d [63:0] $end
$var wire 1 % reset $end
$var parameter 32 =" WIDTH $end
$var reg 64 >" q [63:0] $end
$upscope $end
$scope module immediate_extend $end
$var wire 2 ?" ImmSrc [1:0] $end
$var wire 24 @" Instr [23:0] $end
$var reg 32 A" ExtImm [31:0] $end
$upscope $end
$scope module instruction_memory $end
$var wire 32 B" instruction [31:0] $end
$var wire 32 C" address [31:0] $end
$upscope $end
$scope module memory_register $end
$var wire 1 $ clk $end
$var wire 68 D" d [67:0] $end
$var wire 1 % reset $end
$var parameter 32 E" WIDTH $end
$var reg 68 F" q [67:0] $end
$upscope $end
$scope module pc_add1 $end
$var wire 32 G" b [31:0] $end
$var wire 32 H" y [31:0] $end
$var wire 32 I" a [31:0] $end
$var parameter 32 J" WIDTH $end
$upscope $end
$scope module pc_add2 $end
$var wire 32 K" a [31:0] $end
$var wire 32 L" b [31:0] $end
$var wire 32 M" y [31:0] $end
$var parameter 32 N" WIDTH $end
$upscope $end
$scope module pc_mux $end
$var wire 32 O" d0 [31:0] $end
$var wire 1 * s $end
$var wire 32 P" y [31:0] $end
$var wire 32 Q" d1 [31:0] $end
$var parameter 32 R" WIDTH $end
$upscope $end
$scope module pc_register $end
$var wire 1 $ clk $end
$var wire 32 S" d [31:0] $end
$var wire 1 % reset $end
$var parameter 32 T" WIDTH $end
$var reg 32 U" q [31:0] $end
$upscope $end
$scope module ra1_mux $end
$var wire 4 V" d0 [3:0] $end
$var wire 4 W" d1 [3:0] $end
$var wire 1 X" s $end
$var wire 4 Y" y [3:0] $end
$var parameter 32 Z" WIDTH $end
$upscope $end
$scope module ra2_mux $end
$var wire 4 [" d0 [3:0] $end
$var wire 4 \" d1 [3:0] $end
$var wire 1 ]" s $end
$var wire 4 ^" y [3:0] $end
$var parameter 32 _" WIDTH $end
$upscope $end
$scope module registers $end
$var wire 1 $ clk $end
$var wire 32 `" r15 [31:0] $end
$var wire 4 a" ra1 [3:0] $end
$var wire 4 b" ra2 [3:0] $end
$var wire 4 c" wa3 [3:0] $end
$var wire 1 ' we3 $end
$var wire 32 d" wd3 [31:0] $end
$var wire 32 e" rd2 [31:0] $end
$var wire 32 f" rd1 [31:0] $end
$upscope $end
$scope module srcb_mux $end
$var wire 32 g" d0 [31:0] $end
$var wire 32 h" d1 [31:0] $end
$var wire 1 0 s $end
$var wire 32 i" y [31:0] $end
$var parameter 32 j" WIDTH $end
$upscope $end
$scope module write_data_mux $end
$var wire 32 k" d0 [31:0] $end
$var wire 32 l" d1 [31:0] $end
$var wire 1 , s $end
$var wire 32 m" y [31:0] $end
$var parameter 32 n" WIDTH $end
$upscope $end
$upscope $end
$upscope $end
$upscope $end
$enddefinitions $end
$comment Show the parameter values. $end
$dumpall
b100000 n"
b100000 j"
b100 _"
b100 Z"
b100000 T"
b100000 R"
b100000 N"
b100000 J"
b1000100 E"
b1000000 ="
b1000100 :"
b1100100 7"
b10 O
b10 K
$end
#0
$dumpvars
bz m"
bz l"
bz k"
bx i"
bx h"
bx g"
bx f"
bx e"
bz d"
bz c"
bx b"
bx a"
bx `"
bx ^"
x]"
bx \"
bx ["
bx Y"
xX"
b1111 W"
bx V"
bx U"
bx S"
bz Q"
bx P"
bx O"
bx M"
b100 L"
bx K"
bx I"
bx H"
b100 G"
bx F"
bx D"
bx C"
bx B"
bx A"
bx @"
bx ?"
bx >"
bx <"
bx ;"
bx 9"
bx 8"
bx 6"
bx 5"
bx 4"
bx 3"
bx 2"
bx 1"
bx 0"
bx /"
x."
bx -"
bx ,"
x+"
x*"
x)"
x("
bx '"
bx &"
bx %"
bx $"
bx #"
bx ""
bx !"
bx ~
bx }
bx |
bx {
bx z
bx y
bx x
bx w
bx v
bx u
bx t
bx s
bx r
bx q
bx p
bx o
bx n
bx m
bx l
bx k
bz j
bx i
bx h
bx g
bx f
bx e
bx d
bx c
bx b
bz a
bx `
bz _
z^
bx ]
bz \
bx [
bx Z
bx Y
bx X
xW
xV
bx U
bx T
bx S
bx R
bx Q
bx P
xN
bx M
bx L
xJ
bx I
xH
xG
xF
xE
xD
bx C
bx B
bx A
x@
bx ?
bx >
bx =
bx <
bx ;
bx :
x9
bx 8
bx 7
x6
bx 5
x4
bx 3
bx 2
bx 1
x0
bx /
bx .
bx -
x,
bx +
x*
bx )
bx (
x'
bx &
0%
0$
bx #
x"
bx !
$end
#5000
1$
#10000
0$
#15000
1$
#20000
0$
#25000
1$
#30000
0$
#35000
1$
#40000
0$
#45000
1$
#50000
b10 M
0)"
1("
b100 q
b100 P"
b100 S"
0."
b1 I
b0 m
b0 Y"
b0 a"
0*
b110 1
b110 :
b110 A
b110 #"
b110 1"
1*"
b0 #
b0 /
b0 ""
b0 2"
b100000000000000000000000000000000 ,"
b11111111111111111111111111111111 /"
0X"
0]"
b0 z
b0 A"
1'
0"
09
0J
0N
b0 (
b0 5
b0 T
b0 `
b0 .
b0 7
b0 U
b0 ]
b0 ?"
00
0,
14
06
0V
1W
b0 =
0+"
b0 8
b0 >
b0 Y
b1 2
b1 ;
b1 X
b1 [
b1 $"
b1001 Z
1@
b0 -"
b0 l
b0 ^"
b0 b"
b0 R
b100 Q
b0 S
b1110 <
b1110 B
b0 '"
b0 g
b0 0"
b0 i"
b0 V"
b0 ["
b0 \"
b0 @"
bx000000000000000000000000000000000000 ~
bx000000000000000000000000000000000000 6"
b11100000010011110000 3
1D
b0xxxxxxxxxxxxxxxxxxxxxxxxxxxxxxxx0000 t
b0xxxxxxxxxxxxxxxxxxxxxxxxxxxxxxxx0000 D"
b0 e
b0 !"
b0 3"
b0 b
b0 5"
b0 y
b0 h"
bx000000000000000000000000000000000000 |
bx000000000000000000000000000000000000 9"
b0 f
b0 c
b0 g"
b0 &"
b0 h
b0 %"
b100 n
b100 M"
b100 `"
b0 o
b0 K"
b0 u
b11100000010011110000000000001111 -
b11100000010011110000000000001111 v
b11100000010011110000000000001111 B"
0H
0F
0G
0E
b0 s
b0 F"
b0 {
b0 ;"
b0 }
b0 8"
b0 w
b0 >"
b1110000001001111000000000000111100000000000000000000000000000100 x
b1110000001001111000000000000111100000000000000000000000000000100 <"
b100 p
b100 H"
b100 O"
b0 +
b0 r
b0 C"
b0 I"
b0 U"
b0 P
b0 ?
b0 C
b0 L
0$
1%
#55000
1$
#60000
0$
#65000
1$
#70000
0$
#75000
1$
#80000
0$
#85000
1$
#90000
0$
#95000
1$
#100000
0$
0%
#105000
x)"
x+"
bx /"
bx M
b1000 i
b1000 f"
b1000 !
b1000 &
b1000 d
b1000 e"
bx -"
x("
x."
bx I
b1111 m
b1111 Y"
b1111 a"
b1111 l
b1111 ^"
b1111 b"
b100000000000000000000000000000001000000000000000000000000000000000001111 ~
b100000000000000000000000000000001000000000000000000000000000000000001111 6"
b1111 z
b1111 A"
bx '"
bx g
bx 0"
bx i"
bx 1
bx :
bx A
bx #"
bx 1"
x*"
bx0000 t
bx0000 D"
b1000xxxxxxxxxxxxxxxxxxxxxxxxxxxxxxxx0000 |
b1000xxxxxxxxxxxxxxxxxxxxxxxxxxxxxxxx0000 9"
bx #
bx /
bx ""
bx 2"
b1111 V"
b1111 ["
b10011110000000000001111 @"
bx b
bx 5"
bx c
bx g"
bx &"
bx ,"
bx h
bx %"
b1000 n
b1000 M"
b1000 `"
b100 o
b100 K"
b11100000010011110000000000001111 u
b1000 q
b1000 P"
b1000 S"
b0xxxxxxxxxxxxxxxxxxxxxxxxxxxxxxxx0000 s
b0xxxxxxxxxxxxxxxxxxxxxxxxxxxxxxxx0000 F"
bx000000000000000000000000000000000000 {
bx000000000000000000000000000000000000 ;"
bx000000000000000000000000000000000000 }
bx000000000000000000000000000000000000 8"
b1110000001001111000000000000111100000000000000000000000000000100 w
b1110000001001111000000000000111100000000000000000000000000000100 >"
b1110000001001111000000000000111100000000000000000000000000001000 x
b1110000001001111000000000000111100000000000000000000000000001000 <"
b1000 p
b1000 H"
b1000 O"
b100 +
b100 r
b100 C"
b100 I"
b100 U"
1$
#110000
0$
#115000
b10 M
0)"
1("
0."
b1 I
1+"
b110 1
b110 :
b110 A
b110 #"
b110 1"
1*"
b0xxxxxxxxxxxxxxxxxxxxxxxxxxxxxxxx0000 t
b0xxxxxxxxxxxxxxxxxxxxxxxxxxxxxxxx0000 D"
b0 #
b0 /
b0 ""
b0 2"
b100000000000000000000000000000000 ,"
b11111111111111111111111111110111 /"
b1 -"
b1100 i
b1100 f"
b1100000000000000000000000000000000000000 |
b1100000000000000000000000000000000000000 9"
b110000000000000000000000000000001100000000000000000000000000000000001111 ~
b110000000000000000000000000000001100000000000000000000000000000000001111 6"
b1100 !
b1100 &
b1100 d
b1100 e"
b1000 '"
b1000 g
b1000 0"
b1000 i"
b1100 q
b1100 P"
b1100 S"
b1100 n
b1100 M"
b1100 `"
b1000 o
b1000 K"
b1111 y
b1111 h"
b1000 c
b1000 g"
b1000 &"
b1000 h
b1000 %"
bx !"
bx 3"
b1000 b
b1000 5"
b1110000001001111000000000000111100000000000000000000000000001100 x
b1110000001001111000000000000111100000000000000000000000000001100 <"
b1100 p
b1100 H"
b1100 O"
b1000 +
b1000 r
b1000 C"
b1000 I"
b1000 U"
b1110000001001111000000000000111100000000000000000000000000001000 w
b1110000001001111000000000000111100000000000000000000000000001000 >"
b100000000000000000000000000000001000000000000000000000000000000000001111 }
b100000000000000000000000000000001000000000000000000000000000000000001111 8"
b1000xxxxxxxxxxxxxxxxxxxxxxxxxxxxxxxx0000 {
b1000xxxxxxxxxxxxxxxxxxxxxxxxxxxxxxxx0000 ;"
bx0000 s
bx0000 F"
1$
#120000
0$
#125000
b11111111111111111111111111110011 /"
b1 I
b1100 '"
b1100 g
b1100 0"
b1100 i"
b110 1
b110 :
b110 A
b110 #"
b110 1"
1*"
b0xxxxxxxxxxxxxxxxxxxxxxxxxxxxxxxx0000 t
b0xxxxxxxxxxxxxxxxxxxxxxxxxxxxxxxx0000 D"
b0 #
b0 /
b0 ""
b0 2"
b10000 i
b10000 f"
b10000000000000000000000000000000000000000 |
b10000000000000000000000000000000000000000 9"
b1000000000000000000000000000000010000000000000000000000000000000000001111 ~
b1000000000000000000000000000000010000000000000000000000000000000000001111 6"
b10000 !
b10000 &
b10000 d
b10000 e"
b0 !"
b0 3"
b1100 b
b1100 5"
b1100 c
b1100 g"
b1100 &"
b100000000000000000000000000000000 ,"
b1100 h
b1100 %"
b10000 n
b10000 M"
b10000 `"
b1100 o
b1100 K"
b10000 q
b10000 P"
b10000 S"
b0xxxxxxxxxxxxxxxxxxxxxxxxxxxxxxxx0000 s
b0xxxxxxxxxxxxxxxxxxxxxxxxxxxxxxxx0000 F"
b1100000000000000000000000000000000000000 {
b1100000000000000000000000000000000000000 ;"
b110000000000000000000000000000001100000000000000000000000000000000001111 }
b110000000000000000000000000000001100000000000000000000000000000000001111 8"
b1110000001001111000000000000111100000000000000000000000000001100 w
b1110000001001111000000000000111100000000000000000000000000001100 >"
b1110000001001111000000000000111100000000000000000000000000010000 x
b1110000001001111000000000000111100000000000000000000000000010000 <"
b10000 p
b10000 H"
b10000 O"
b1100 +
b1100 r
b1100 C"
b1100 I"
b1100 U"
1$
#130000
0$
#135000
b11111111111111111111111111101111 /"
b1 I
b10100 i
b10100 f"
b1010000000000000000000000000000010100000000000000000000000000000000001111 ~
b1010000000000000000000000000000010100000000000000000000000000000000001111 6"
b10100 !
b10100 &
b10100 d
b10100 e"
b10000 '"
b10000 g
b10000 0"
b10000 i"
b110 1
b110 :
b110 A
b110 #"
b110 1"
1*"
b0xxxxxxxxxxxxxxxxxxxxxxxxxxxxxxxx0000 t
b0xxxxxxxxxxxxxxxxxxxxxxxxxxxxxxxx0000 D"
b10100000000000000000000000000000000000000 |
b10100000000000000000000000000000000000000 9"
b0 #
b0 /
b0 ""
b0 2"
b10100 q
b10100 P"
b10100 S"
b10100 n
b10100 M"
b10100 `"
b10000 o
b10000 K"
b10000 c
b10000 g"
b10000 &"
b100000000000000000000000000000000 ,"
b10000 h
b10000 %"
b10000 b
b10000 5"
b1110000001001111000000000000111100000000000000000000000000010100 x
b1110000001001111000000000000111100000000000000000000000000010100 <"
b10100 p
b10100 H"
b10100 O"
b10000 +
b10000 r
b10000 C"
b10000 I"
b10000 U"
b1110000001001111000000000000111100000000000000000000000000010000 w
b1110000001001111000000000000111100000000000000000000000000010000 >"
b1000000000000000000000000000000010000000000000000000000000000000000001111 }
b1000000000000000000000000000000010000000000000000000000000000000000001111 8"
b10000000000000000000000000000000000000000 {
b10000000000000000000000000000000000000000 ;"
1$
#140000
0$
#145000
b0 M
0)"
0("
0."
10
b1111 /"
b0 2
b0 ;
b0 X
b0 [
b0 $"
b101001 Z
b0 I
b101000 Q
b1 S
b1111 '"
b1111 g
b1111 0"
b1111 i"
b0 1
b0 :
b0 A
b0 #"
b0 1"
0*"
b100011xxxxxxxxxxxxxxxxxxxxxxxxxxxxxxxx0000 t
b100011xxxxxxxxxxxxxxxxxxxxxxxxxxxxxxxx0000 D"
b100011 #
b100011 /
b100011 ""
b100011 2"
b11000 i
b11000 f"
b11000000000000000000000000000001000110000 |
b11000000000000000000000000000001000110000 9"
b1100000000000000000000000000000011000000000000000000000000000000000001111 ~
b1100000000000000000000000000000011000000000000000000000000000000000001111 6"
b11000 !
b11000 &
b11000 d
b11000 e"
b11100010100000000001 3
b10100 b
b10100 5"
b10100 c
b10100 g"
b10100 &"
b100011 ,"
b10100 h
b10100 %"
b11000 n
b11000 M"
b11000 `"
b10100 o
b10100 K"
b11000 q
b11000 P"
b11000 S"
b11100010100000000001000000000100 -
b11100010100000000001000000000100 v
b11100010100000000001000000000100 B"
b10100000000000000000000000000000000000000 {
b10100000000000000000000000000000000000000 ;"
b1010000000000000000000000000000010100000000000000000000000000000000001111 }
b1010000000000000000000000000000010100000000000000000000000000000000001111 8"
b1110000001001111000000000000111100000000000000000000000000010100 w
b1110000001001111000000000000111100000000000000000000000000010100 >"
b1110001010000000000100000000010000000000000000000000000000011000 x
b1110001010000000000100000000010000000000000000000000000000011000 <"
b11000 p
b11000 H"
b11000 O"
b10100 +
b10100 r
b10100 C"
b10100 I"
b10100 U"
1$
#150000
0$
#155000
b11000 /"
b11000 '"
b11000 g
b11000 0"
b11000 i"
00
0'
b100 2
b100 ;
b100 X
b100 [
b100 $"
b1001 Z
0@
b0 Q
b0 S
b0 <
b0 B
b0 m
b0 Y"
b0 a"
b100 l
b100 ^"
b100 b"
b100 z
b100 A"
b0 3
bx i
bx f"
bx !
bx &
bx d
bx e"
b0 V"
b100 ["
b1 \"
b100000000001000000000100 @"
bx000100000000000000000000000000000100 ~
bx000100000000000000000000000000000100 6"
b11000xxxxxxxxxxxxxxxxxxxxxxxxxxxxxxxx0000 t
b11000xxxxxxxxxxxxxxxxxxxxxxxxxxxxxxxx0000 D"
bx000000000000000000000000000110000000 |
bx000000000000000000000000000110000000 9"
b11000 #
b11000 /
b11000 ""
b11000 2"
b11100 q
b11100 P"
b11100 S"
b0 -
b0 v
b0 B"
b11100 n
b11100 M"
b11100 `"
b11000 o
b11000 K"
b11100010100000000001000000000100 u
b11000 c
b11000 g"
b11000 &"
b110000 ,"
b11000 h
b11000 %"
b100011 !"
b100011 3"
b11000 b
b11000 5"
b11100 x
b11100 <"
b11100 p
b11100 H"
b11100 O"
b11000 +
b11000 r
b11000 C"
b11000 I"
b11000 U"
b1110001010000000000100000000010000000000000000000000000000011000 w
b1110001010000000000100000000010000000000000000000000000000011000 >"
b1100000000000000000000000000000011000000000000000000000000000000000001111 }
b1100000000000000000000000000000011000000000000000000000000000000000001111 8"
b11000000000000000000000000000001000110000 {
b11000000000000000000000000000001000110000 ;"
b100011xxxxxxxxxxxxxxxxxxxxxxxxxxxxxxxx0000 s
b100011xxxxxxxxxxxxxxxxxxxxxxxxxxxxxxxx0000 F"
1$
#160000
0$
#165000
x."
bx /"
bx I
x+"
b0 l
b0 ^"
b0 b"
b0 z
b0 A"
bx '"
bx g
bx 0"
bx i"
bx -"
bx00 1
bx00 :
bx00 A
bx00 #"
bx00 1"
x*"
bx0000 t
bx0000 D"
bx #
bx /
bx ""
bx 2"
b0 ["
b0 \"
b0 @"
bx000000000000000000000000000000000000 ~
bx000000000000000000000000000000000000 6"
b11000 !"
b11000 3"
bx b
bx 5"
b100 y
b100 h"
bx0001 |
bx0001 9"
b1 f
bx c
bx g"
bx &"
bx ,"
bx h
bx %"
b100000 n
b100000 M"
b100000 `"
b11100 o
b11100 K"
b0 u
b100000 q
b100000 P"
b100000 S"
b11000xxxxxxxxxxxxxxxxxxxxxxxxxxxxxxxx0000 s
b11000xxxxxxxxxxxxxxxxxxxxxxxxxxxxxxxx0000 F"
bx000000000000000000000000000110000000 {
bx000000000000000000000000000110000000 ;"
bx000100000000000000000000000000000100 }
bx000100000000000000000000000000000100 8"
b11100 w
b11100 >"
b100000 x
b100000 <"
b100000 p
b100000 H"
b100000 O"
b11100 +
b11100 r
b11100 C"
b11100 I"
b11100 U"
1$
#170000
0$
#175000
b100100 q
b100100 P"
b100100 S"
b100100 n
b100100 M"
b100100 `"
b100000 o
b100000 K"
b0 y
b0 h"
bx0000 |
bx0000 9"
b0 f
bx0001 t
bx0001 D"
b1 e
bx !"
bx 3"
b100100 x
b100100 <"
b100100 p
b100100 H"
b100100 O"
b100000 +
b100000 r
b100000 C"
b100000 I"
b100000 U"
b100000 w
b100000 >"
bx000000000000000000000000000000000000 }
bx000000000000000000000000000000000000 8"
bx0001 {
bx0001 ;"
bx0000 s
bx0000 F"
1$
#180000
0$
#185000
bx0000 t
bx0000 D"
b0 e
b101000 n
b101000 M"
b101000 `"
b100100 o
b100100 K"
b101000 q
b101000 P"
b101000 S"
bx0001 s
bx0001 F"
bx0000 {
bx0000 ;"
b100100 w
b100100 >"
b101000 x
b101000 <"
b101000 p
b101000 H"
b101000 O"
b100100 +
b100100 r
b100100 C"
b100100 I"
b100100 U"
1$
#190000
0$
#195000
b101100 q
b101100 P"
b101100 S"
b101100 n
b101100 M"
b101100 `"
b101000 o
b101000 K"
b101100 x
b101100 <"
b101100 p
b101100 H"
b101100 O"
b101000 +
b101000 r
b101000 C"
b101000 I"
b101000 U"
b101000 w
b101000 >"
bx0000 s
bx0000 F"
1$
